{
	"info": {
		"_postman_id": "edcec94e-28ae-41cc-9681-fe1c93e61333",
		"name": "Newman",
		"schema": "https://schema.getpostman.com/json/collection/v2.0.0/collection.json",
		"_exporter_id": "18152979"
	},
	"item": [
		{
			"name": "New Request",
			"event": [
				{
					"listen": "prerequest",
					"script": {
						"exec": [
							""
						],
						"type": "text/javascript",
						"packages": {}
					}
				},
				{
					"listen": "test",
					"script": {
						"exec": [
							"pm.test(\"Test status is 200\", function(){\r",
							"   pm.response.to.have.status(200);\r",
							"   });\r",
							"\r",
							"pm.test(\"Response less than 900ms\", function(){\r",
							"   pm.expect(pm.response.responseTime).to.be.below(900);\r",
							"});\r",
							"\r",
							"pm.test('Test page', function(){\r",
							"   const reponsejson = pm.response.json();\r",
							"   pm.expect(reponsejson.page).to.be.equal(1);\r",
							"   pm.expect(reponsejson.per_page).to.be.equal(6);\r",
							"});\r",
							"\r",
							"\r",
							"var schema =\r",
							"{\r",
							"    \r",
							"  \"page\": 1,\r",
							"  \"per_page\": 6,\r",
							"  \"total\": 12,\r",
							"  \"total_pages\": 2,\r",
							"  \"data\": [\r",
							"    {\r",
							"      \"id\": 1,\r",
							"      \"email\": \"george.bluth@reqres.in\",\r",
							"      \"first_name\": \"George\",\r",
							"      \"last_name\": \"Bluth\",\r",
							"      \"avatar\": \"https://reqres.in/img/faces/1-image.jpg\"\r",
							"    },\r",
							"    {\r",
							"      \"id\": 2,\r",
							"      \"email\": \"janet.weaver@reqres.in\",\r",
							"      \"first_name\": \"Janet\",\r",
							"      \"last_name\": \"Weaver\",\r",
							"      \"avatar\": \"https://reqres.in/img/faces/2-image.jpg\"\r",
							"    },\r",
							"    {\r",
							"      \"id\": 3,\r",
							"      \"email\": \"emma.wong@reqres.in\",\r",
							"      \"first_name\": \"Emma\",\r",
							"      \"last_name\": \"Wong\",\r",
							"      \"avatar\": \"https://reqres.in/img/faces/3-image.jpg\"\r",
							"    },\r",
							"    {\r",
							"      \"id\": 4,\r",
							"      \"email\": \"eve.holt@reqres.in\",\r",
							"      \"first_name\": \"Eve\",\r",
							"      \"last_name\": \"Holt\",\r",
							"      \"avatar\": \"https://reqres.in/img/faces/4-image.jpg\"\r",
							"    },\r",
							"    {\r",
							"      \"id\": 5,\r",
							"      \"email\": \"charles.morris@reqres.in\",\r",
							"      \"first_name\": \"Charles\",\r",
							"      \"last_name\": \"Morris\",\r",
							"      \"avatar\": \"https://reqres.in/img/faces/5-image.jpg\"\r",
							"    },\r",
							"    {\r",
							"      \"id\": 6,\r",
							"      \"email\": \"tracey.ramos@reqres.in\",\r",
							"      \"first_name\": \"Tracey\",\r",
							"      \"last_name\": \"Ramos\",\r",
							"      \"avatar\": \"https://reqres.in/img/faces/6-image.jpg\"\r",
							"    }\r",
							"  ],\r",
							"  \"support\": {\r",
							"    \"url\": \"https://contentcaddy.io?utm_source=reqres&utm_medium=json&utm_campaign=referral\",\r",
							"    \"text\": \"Tired of writing endless social media content? Let Content Caddy generate it for you.\"\r",
							"  }\r",
							"}\r",
							"\r",
							"pm.test('Validate shema', function(){\r",
							"\r",
							"    pm.response.to.have.jsonSchema(schema);\r",
							"});"
						],
						"type": "text/javascript",
						"packages": {}
					}
				}
			],
			"request": {
				"method": "GET",
				"header": [],
				"url": "https://reqres.in/api/users"
			},
			"response": []
		}
	]
}